Data Viz and Regression in R
…
library(modelr)

library(modelr) has many useful functions for modeling. It works with more types of models than just linear models from lm().

add_predictions()

add_predictions() adds predictions to a data set using an estimated model object.

add_predictions(data = diamonds, model = diamonds_model1)

## # A tibble: 1,000 x 11
##    carat cut       color clarity depth table price     x     y     z   pred
##    <dbl> <chr>     <chr> <chr>   <dbl> <dbl> <int> <dbl> <dbl> <dbl>  <dbl>
##  1  0.7  Very Good I     VVS1     62.9    58  2513  5.65  5.67  3.56  3074.
##  2  1.52 Ideal     I     SI2      61.7    57  7582  7.38  7.41  4.56 10173.
##  3  0.31 Ideal     H     SI1      61.3    55   421  4.35  4.39  2.68   390.
##  4  0.71 Ideal     D     VS2      59.9    57  3540  5.8   5.83  3.48  3624.
##  5  2.07 Ideal     I     SI2      62      55 16189  8.12  8.22  5.07 14620.
##  6  1    Ideal     E     SI2      61.9    56  4760  6.43  6.4   3.97  5969.
##  7  1.2  Ideal     G     SI1      61.2    56  7920  6.87  6.88  4.21  7586.
##  8  0.52 Good      H     VS2      63.7    54  1385  5.12  5.09  3.25  1311.
##  9  0.65 Very Good G     VS2      63.2    57  2009  5.54  5.47  3.48  2670.
## 10  0.49 Premium   F     SI2      62.2    59  1073  5.09  5.04  3.15  1317.
## #  with 990 more rows

add_residuals()

add_residuals() adds residuals to a data set using an estimated model object.

add_residuals(data = diamonds, model = diamonds_model1)

## # A tibble: 1,000 x 11
##    carat cut       color clarity depth table price     x     y     z   resid
##    <dbl> <chr>     <chr> <chr>   <dbl> <dbl> <int> <dbl> <dbl> <dbl>   <dbl>
##  1  0.7  Very Good I     VVS1     62.9    58  2513  5.65  5.67  3.56  -561. 
##  2  1.52 Ideal     I     SI2      61.7    57  7582  7.38  7.41  4.56 -2591. 
##  3  0.31 Ideal     H     SI1      61.3    55   421  4.35  4.39  2.68    30.7
##  4  0.71 Ideal     D     VS2      59.9    57  3540  5.8   5.83  3.48   -84.3
##  5  2.07 Ideal     I     SI2      62      55 16189  8.12  8.22  5.07  1569. 
##  6  1    Ideal     E     SI2      61.9    56  4760  6.43  6.4   3.97 -1209. 
##  7  1.2  Ideal     G     SI1      61.2    56  7920  6.87  6.88  4.21   334. 
##  8  0.52 Good      H     VS2      63.7    54  1385  5.12  5.09  3.25    73.8
##  9  0.65 Very Good G     VS2      63.2    57  2009  5.54  5.47  3.48  -661. 
## 10  0.49 Premium   F     SI2      62.2    59  1073  5.09  5.04  3.15  -244. 
## #  with 990 more rows

data_grid()

data_grid() creates an evenly-spaced grid of points using the range of observed predictors in a data set. This is useful for visualization and is really, really useful for understanding generalized linear models.

data_grid(data = diamonds, carat, cut) %>%
  add_predictions(diamonds_model1)

## # A tibble: 765 x 3
##    carat cut         pred
##    <dbl> <chr>      <dbl>
##  1  0.2  Fair      -2300.
##  2  0.2  Good      -1276.
##  3  0.2  Ideal      -499.
##  4  0.2  Premium   -1028.
##  5  0.2  Very Good  -968.
##  6  0.23 Fair      -2058.
##  7  0.23 Good      -1033.
##  8  0.23 Ideal      -256.
##  9  0.23 Premium    -785.
## 10  0.23 Very Good  -726.
## #  with 755 more rows
…
augment()

augment() returns observation-level diagnostics like residuals and hat values.

augment(diamonds_model1)

## # A tibble: 1,000 x 9
##    price carat cut       .fitted  .resid    .hat .sigma     .cooksd .std.resid
##    <int> <dbl> <chr>       <dbl>   <dbl>   <dbl>  <dbl>       <dbl>      <dbl>
##  1  2513  0.7  Very Good   3074.  -561.  0.00449  1455. 0.000112       -0.387 
##  2  7582  1.52 Ideal      10173. -2591.  0.00539  1453. 0.00288        -1.79  
##  3   421  0.31 Ideal        390.    30.7 0.00324  1455. 0.000000242     0.0211
##  4  3540  0.71 Ideal       3624.   -84.3 0.00248  1455. 0.00000140     -0.0580
##  5 16189  2.07 Ideal      14620.  1569.  0.0107   1454. 0.00213         1.09  
##  6  4760  1    Ideal       5969. -1209.  0.00284  1454. 0.000329       -0.833 
##  7  7920  1.2  Ideal       7586.   334.  0.00353  1455. 0.0000313       0.230 
##  8  1385  0.52 Good        1311.    73.8 0.0128   1455. 0.00000566      0.0511
##  9  2009  0.65 Very Good   2670.  -661.  0.00454  1455. 0.000158       -0.455 
## 10  1073  0.49 Premium     1317.  -244.  0.00473  1455. 0.0000224      -0.168 
## #  with 990 more rows
…
